^L:\VISUAL STUDIO\MATHS FOR GAMES\UNITTEST\UNITTEST\MAIN.CPP
/c /ZI /JMC /nologo /W3 /WX- /diagnostics:classic /Od /Oy- /D WIN32 /D _DEBUG /D _CONSOLE /D _UNICODE /D UNICODE /Gm- /EHsc /RTC1 /MDd /GS /fp:precise /Zc:wchar_t /Zc:forScope /Zc:inline /Fo"DEBUG\\" /Fd"DEBUG\VC141.PDB" /Gd /TP /analyze- /FC L:\VISUAL STUDIO\MATHS FOR GAMES\UNITTEST\UNITTEST\MAIN.CPP
^L:\VISUAL STUDIO\MATHS FOR GAMES\UNITTEST\UNITTEST\UNITTEST.CPP
/c /ZI /JMC /nologo /W3 /WX- /diagnostics:classic /Od /Oy- /D WIN32 /D _DEBUG /D _CONSOLE /D _UNICODE /D UNICODE /Gm- /EHsc /RTC1 /MDd /GS /fp:precise /Zc:wchar_t /Zc:forScope /Zc:inline /Fo"DEBUG\\" /Fd"DEBUG\VC141.PDB" /Gd /TP /analyze- /FC L:\VISUAL STUDIO\MATHS FOR GAMES\UNITTEST\UNITTEST\UNITTEST.CPP
